{
    "workbench.colorTheme": "Material Theme Darker High Contrast",
    "editor.fontFamily": "'Fira Code Medium', 'Droid Sans Mono', 'monospace', monospace, 'Droid Sans Fallback'",
    "editor.fontSize": 16,
    "editor.fontLigatures": true,
    "files.associations": {
        "**/*.html": "html",
        "**/templates/**/*.html": "django-html",
        "**/templates/**/*": "django-txt",
        "**/requirements{/**,*}.{txt,in}": "pip-requirements",
        ".env*": "properties",
    },
    "workbench.iconTheme": "eq-material-theme-icons-light",
    "editor.renderWhitespace": "boundary",
    "editor.rulers": [
        80,
        120
    ],
    "editor.formatOnPaste": true,
    "explorer.confirmDragAndDrop": false,
    "workbench.startupEditor": "none",
    "workbench.colorCustomizations": {
        "editor.selectionBackground": "#e8e9d554", //Current SELECTED text
        "editor.selectionHighlightBackground": "#ebf08860", //same content as the selection
        "editor.findMatchBackground": "#e7eed965", //Current SEARCH MATCH
        "editor.findMatchHighlightBackground": "#c8ec7f5d" //Other SEARCH MATCHES
    },
    "gitlens.advanced.messages": {
        "suppressLineUncommittedWarning": true
    },
    "git.confirmSync": false,
    "explorer.confirmDelete": false,
    "[json]": {
        "editor.defaultFormatter": "vscode.json-language-features"
    },
    "python.defaultInterpreterPath": "/home/xakiv/msc/splash/venv"
}